<?xml version="1.0"?>
<gpx version="1.1" creator="GPS Visualizer http://www.gpsvisualizer.com/" xmlns="http://www.topografix.com/GPX/1/1" xmlns:xsi="http://www.w3.org/2001/XMLSchema-instance" xsi:schemaLocation="http://www.topografix.com/GPX/1/1 http://www.topografix.com/GPX/1/1/gpx.xsd">
<wpt lat="48.232391554" lon="17.110347748">
  <ele>403.7</ele>
</wpt>
<wpt lat="48.247811582" lon="17.21766293">
  <ele>137.5</ele>
</wpt>
<wpt lat="48.186311019" lon="17.09397018">
  <ele>420.8</ele>
</wpt>
<wpt lat="48.185874683" lon="17.038443089">
  <ele>233.5</ele>
</wpt>
<wpt lat="48.176496125" lon="16.979413033">
  <ele>140.5</ele>
</wpt>
<trk>
  <name>Devinska 37</name>
  <trkseg>
    <trkpt lat="48.185835499" lon="17.038412327">
      <ele>233.708</ele>
    </trkpt>
    <trkpt lat="48.18584539" lon="17.038111752">
      <ele>233.159</ele>
    </trkpt>
    <trkpt lat="48.185506091" lon="17.038004799">
      <ele>232.93</ele>
    </trkpt>
    <trkpt lat="48.18540973" lon="17.037606239">
      <ele>230.857</ele>
    </trkpt>
    <trkpt lat="48.185233762" lon="17.036954965">
      <ele>231.804</ele>
    </trkpt>
    <trkpt lat="48.185113063" lon="17.036305116">
      <ele>234.133</ele>
    </trkpt>
    <trkpt lat="48.185187981" lon="17.036061287">
      <ele>236.776</ele>
    </trkpt>
    <trkpt lat="48.185320315" lon="17.035878897">
      <ele>239.38</ele>
    </trkpt>
    <trkpt lat="48.185187981" lon="17.035723329">
      <ele>238.975</ele>
    </trkpt>
    <trkpt lat="48.185180828" lon="17.035508752">
      <ele>239.196</ele>
    </trkpt>
    <trkpt lat="48.185338198" lon="17.035310268">
      <ele>241.025</ele>
    </trkpt>
    <trkpt lat="48.185679261" lon="17.034767708">
      <ele>236.809</ele>
    </trkpt>
    <trkpt lat="48.186145797" lon="17.033397853">
      <ele>234.904</ele>
    </trkpt>
    <trkpt lat="48.186171535" lon="17.033116221">
      <ele>234.782</ele>
    </trkpt>
    <trkpt lat="48.185981979" lon="17.032016516">
      <ele>239.137</ele>
    </trkpt>
    <trkpt lat="48.185750004" lon="17.030649511">
      <ele>239.759</ele>
    </trkpt>
    <trkpt lat="48.185559946" lon="17.030358911">
      <ele>241.692</ele>
    </trkpt>
    <trkpt lat="48.185234265" lon="17.030068561">
      <ele>243.159</ele>
    </trkpt>
    <trkpt lat="48.185184405" lon="17.029801011">
      <ele>245.346</ele>
    </trkpt>
    <trkpt lat="48.185309586" lon="17.028626204">
      <ele>245.175</ele>
    </trkpt>
    <trkpt lat="48.185431189" lon="17.027944922">
      <ele>249.901</ele>
    </trkpt>
    <trkpt lat="48.185444651" lon="17.02746179">
      <ele>251.738</ele>
    </trkpt>
    <trkpt lat="48.185625114" lon="17.027126011">
      <ele>254.194</ele>
    </trkpt>
    <trkpt lat="48.185849647" lon="17.02709198">
      <ele>255.996</ele>
    </trkpt>
    <trkpt lat="48.185853223" lon="17.026984692">
      <ele>256.782</ele>
    </trkpt>
    <trkpt lat="48.185642207" lon="17.026877403">
      <ele>255.865</ele>
    </trkpt>
    <trkpt lat="48.185491991" lon="17.026416063">
      <ele>256.216</ele>
    </trkpt>
    <trkpt lat="48.185517027" lon="17.025643587">
      <ele>261.322</ele>
    </trkpt>
    <trkpt lat="48.18540973" lon="17.025455832">
      <ele>262.547</ele>
    </trkpt>
    <trkpt lat="48.185408106" lon="17.025166992">
      <ele>264.328</ele>
    </trkpt>
    <trkpt lat="48.185681608" lon="17.02407416">
      <ele>273.635</ele>
    </trkpt>
    <trkpt lat="48.186063319" lon="17.023671074">
      <ele>279.964</ele>
    </trkpt>
    <trkpt lat="48.186471962" lon="17.023690939">
      <ele>281.523</ele>
    </trkpt>
    <trkpt lat="48.18672947" lon="17.023841143">
      <ele>281.57</ele>
    </trkpt>
    <trkpt lat="48.186940482" lon="17.023830414">
      <ele>282.407</ele>
    </trkpt>
    <trkpt lat="48.187062082" lon="17.023460269">
      <ele>285.859</ele>
    </trkpt>
    <trkpt lat="48.187319586" lon="17.021920681">
      <ele>309.013</ele>
    </trkpt>
    <trkpt lat="48.187319586" lon="17.021341324">
      <ele>315.326</ele>
    </trkpt>
    <trkpt lat="48.187197987" lon="17.020976543">
      <ele>320.467</ele>
    </trkpt>
    <trkpt lat="48.186915447" lon="17.020246983">
      <ele>327.111</ele>
    </trkpt>
    <trkpt lat="48.186604293" lon="17.019678354">
      <ele>329.989</ele>
    </trkpt>
    <trkpt lat="48.186421891" lon="17.019318938">
      <ele>334.44</ele>
    </trkpt>
    <trkpt lat="48.186203724" lon="17.019131184">
      <ele>338.794</ele>
    </trkpt>
    <trkpt lat="48.185916301" lon="17.018872853">
      <ele>341.742</ele>
    </trkpt>
    <trkpt lat="48.18551345" lon="17.01801002">
      <ele>344.848</ele>
    </trkpt>
    <trkpt lat="48.185395423" lon="17.017559409">
      <ele>345.663</ele>
    </trkpt>
    <trkpt lat="48.185352504" lon="17.016878128">
      <ele>347.0</ele>
    </trkpt>
    <trkpt lat="48.185338198" lon="17.016620636">
      <ele>346.539</ele>
    </trkpt>
    <trkpt lat="48.18522647" lon="17.016360546">
      <ele>343.981</ele>
    </trkpt>
    <trkpt lat="48.185034188" lon="17.01584816">
      <ele>340.984</ele>
    </trkpt>
    <trkpt lat="48.184855357" lon="17.015354633">
      <ele>340.318</ele>
    </trkpt>
    <trkpt lat="48.184819591" lon="17.015113235">
      <ele>339.884</ele>
    </trkpt>
    <trkpt lat="48.184679886" lon="17.014862197">
      <ele>342.029</ele>
    </trkpt>
    <trkpt lat="48.18458711" lon="17.014764547">
      <ele>343.719</ele>
    </trkpt>
    <trkpt lat="48.184361782" lon="17.014898658">
      <ele>344.621</ele>
    </trkpt>
    <trkpt lat="48.184154336" lon="17.014356852">
      <ele>348.528</ele>
    </trkpt>
    <trkpt lat="48.184200832" lon="17.013611197">
      <ele>351.123</ele>
    </trkpt>
    <trkpt lat="48.184351052" lon="17.012586594">
      <ele>359.871</ele>
    </trkpt>
    <trkpt lat="48.184486965" lon="17.012039423">
      <ele>368.463</ele>
    </trkpt>
    <trkpt lat="48.184540614" lon="17.011808753">
      <ele>370.107</ele>
    </trkpt>
    <trkpt lat="48.184744482" lon="17.011138201">
      <ele>373.805</ele>
    </trkpt>
    <trkpt lat="48.184801708" lon="17.010521293">
      <ele>378.512</ele>
    </trkpt>
    <trkpt lat="48.184947856" lon="17.010197584">
      <ele>380.898</ele>
    </trkpt>
    <trkpt lat="48.184973385" lon="17.009904385">
      <ele>385.128</ele>
    </trkpt>
    <trkpt lat="48.185098567" lon="17.00971663">
      <ele>385.989</ele>
    </trkpt>
    <trkpt lat="48.185152216" lon="17.00897634">
      <ele>392.691</ele>
    </trkpt>
    <trkpt lat="48.185134333" lon="17.008734941">
      <ele>394.888</ele>
    </trkpt>
    <trkpt lat="48.185316739" lon="17.008488178">
      <ele>393.865</ele>
    </trkpt>
    <trkpt lat="48.186203724" lon="17.007136345">
      <ele>400.388</ele>
    </trkpt>
    <trkpt lat="48.186618599" lon="17.006438971">
      <ele>399.86</ele>
    </trkpt>
    <trkpt lat="48.186890411" lon="17.005886436">
      <ele>404.01</ele>
    </trkpt>
    <trkpt lat="48.187176528" lon="17.005012035">
      <ele>409.049</ele>
    </trkpt>
    <trkpt lat="48.187137187" lon="17.004625797">
      <ele>413.389</ele>
    </trkpt>
    <trkpt lat="48.187208716" lon="17.004314661">
      <ele>416.957</ele>
    </trkpt>
    <trkpt lat="48.187323163" lon="17.004041076">
      <ele>417.163</ele>
    </trkpt>
    <trkpt lat="48.18747695" lon="17.003971338">
      <ele>415.68</ele>
    </trkpt>
    <trkpt lat="48.187659347" lon="17.003563643">
      <ele>418.171</ele>
    </trkpt>
    <trkpt lat="48.188210113" lon="17.002936006">
      <ele>419.039</ele>
    </trkpt>
    <trkpt lat="48.188467612" lon="17.002517581">
      <ele>425.2</ele>
    </trkpt>
    <trkpt lat="48.188474765" lon="17.002319098">
      <ele>428.434</ele>
    </trkpt>
    <trkpt lat="48.188524834" lon="17.001900673">
      <ele>435.99</ele>
    </trkpt>
    <trkpt lat="48.18886101" lon="17.001133561">
      <ele>441.665</ele>
    </trkpt>
    <trkpt lat="48.189737205" lon="17.000463009">
      <ele>455.981</ele>
    </trkpt>
    <trkpt lat="48.191360808" lon="16.999803185">
      <ele>455.626</ele>
    </trkpt>
    <trkpt lat="48.191782794" lon="16.999438405">
      <ele>458.427</ele>
    </trkpt>
    <trkpt lat="48.192408613" lon="16.998580098">
      <ele>460.397</ele>
    </trkpt>
    <trkpt lat="48.192701852" lon="16.998467445">
      <ele>459.265</ele>
    </trkpt>
    <trkpt lat="48.193041577" lon="16.998220682">
      <ele>459.773</ele>
    </trkpt>
    <trkpt lat="48.193563677" lon="16.997673512">
      <ele>458.775</ele>
    </trkpt>
    <trkpt lat="48.194178746" lon="16.996101737">
      <ele>449.818</ele>
    </trkpt>
    <trkpt lat="48.194218082" lon="16.995758414">
      <ele>450.26</ele>
    </trkpt>
    <trkpt lat="48.194057163" lon="16.994991302">
      <ele>450.565</ele>
    </trkpt>
    <trkpt lat="48.193828301" lon="16.994304657">
      <ele>454.309</ele>
    </trkpt>
    <trkpt lat="48.192844894" lon="16.99238956">
      <ele>450.937</ele>
    </trkpt>
    <trkpt lat="48.191972328" lon="16.991681457">
      <ele>450.912</ele>
    </trkpt>
    <trkpt lat="48.191178424" lon="16.990426183">
      <ele>443.702</ele>
    </trkpt>
    <trkpt lat="48.19030583" lon="16.990828514">
      <ele>457.762</ele>
    </trkpt>
    <trkpt lat="48.189865951" lon="16.991391778">
      <ele>468.972</ele>
    </trkpt>
    <trkpt lat="48.188921808" lon="16.991633177">
      <ele>480.532</ele>
    </trkpt>
    <trkpt lat="48.187877508" lon="16.992148161">
      <ele>490.462</ele>
    </trkpt>
    <trkpt lat="48.187615899" lon="16.992532136">
      <ele>487.319</ele>
    </trkpt>
    <trkpt lat="48.187861741" lon="16.992084123">
      <ele>489.026</ele>
    </trkpt>
    <trkpt lat="48.189174514" lon="16.991501497">
      <ele>479.188</ele>
    </trkpt>
    <trkpt lat="48.189774323" lon="16.99141399">
      <ele>470.611</ele>
    </trkpt>
    <trkpt lat="48.190391659" lon="16.990721226">
      <ele>456.207</ele>
    </trkpt>
    <trkpt lat="48.191561073" lon="16.990222335">
      <ele>435.762</ele>
    </trkpt>
    <trkpt lat="48.192129677" lon="16.989664435">
      <ele>421.751</ele>
    </trkpt>
    <trkpt lat="48.192405037" lon="16.989364028">
      <ele>414.229</ele>
    </trkpt>
    <trkpt lat="48.192823438" lon="16.988613009">
      <ele>400.541</ele>
    </trkpt>
    <trkpt lat="48.19317389" lon="16.9882375">
      <ele>390.539</ele>
    </trkpt>
    <trkpt lat="48.19332766" lon="16.988028288">
      <ele>387.726</ele>
    </trkpt>
    <trkpt lat="48.193442092" lon="16.987717152">
      <ele>382.779</ele>
    </trkpt>
    <trkpt lat="48.193728173" lon="16.98741138">
      <ele>375.389</ele>
    </trkpt>
    <trkpt lat="48.194446943" lon="16.987035871">
      <ele>366.269</ele>
    </trkpt>
    <trkpt lat="48.194965453" lon="16.98653698">
      <ele>354.506</ele>
    </trkpt>
    <trkpt lat="48.195383832" lon="16.986113191">
      <ele>350.308</ele>
    </trkpt>
    <trkpt lat="48.195689516" lon="16.985746231">
      <ele>346.734</ele>
    </trkpt>
    <trkpt lat="48.195895181" lon="16.985195875">
      <ele>345.423</ele>
    </trkpt>
    <trkpt lat="48.19612761" lon="16.984911561">
      <ele>341.306</ele>
    </trkpt>
    <trkpt lat="48.196252764" lon="16.984514594">
      <ele>336.287</ele>
    </trkpt>
    <trkpt lat="48.196249188" lon="16.983988881">
      <ele>335.85</ele>
    </trkpt>
    <trkpt lat="48.196131186" lon="16.983591914">
      <ele>338.147</ele>
    </trkpt>
    <trkpt lat="48.196714958" lon="16.982150311">
      <ele>315.528</ele>
    </trkpt>
    <trkpt lat="48.197644847" lon="16.980716921">
      <ele>294.077</ele>
    </trkpt>
    <trkpt lat="48.19841609" lon="16.979364753">
      <ele>289.629</ele>
    </trkpt>
    <trkpt lat="48.198795109" lon="16.978726387">
      <ele>283.675</ele>
    </trkpt>
    <trkpt lat="48.199060382" lon="16.977856848">
      <ele>271.016</ele>
    </trkpt>
    <trkpt lat="48.199174879" lon="16.977458792">
      <ele>264.212</ele>
    </trkpt>
    <trkpt lat="48.19932064" lon="16.977507994">
      <ele>263.987</ele>
    </trkpt>
    <trkpt lat="48.199664047" lon="16.977037434">
      <ele>254.383</ele>
    </trkpt>
    <trkpt lat="48.199878518" lon="16.977100968">
      <ele>248.428</ele>
    </trkpt>
    <trkpt lat="48.200127399" lon="16.977062244">
      <ele>241.435</ele>
    </trkpt>
    <trkpt lat="48.200760316" lon="16.976851188">
      <ele>222.234</ele>
    </trkpt>
    <trkpt lat="48.200872516" lon="16.97681129">
      <ele>218.366</ele>
    </trkpt>
    <trkpt lat="48.201069168" lon="16.97658062">
      <ele>213.853</ele>
    </trkpt>
    <trkpt lat="48.201287957" lon="16.976162028">
      <ele>208.92</ele>
    </trkpt>
    <trkpt lat="48.201446291" lon="16.975705549">
      <ele>204.887</ele>
    </trkpt>
    <trkpt lat="48.201458894" lon="16.975207329">
      <ele>200.475</ele>
    </trkpt>
    <trkpt lat="48.201440005" lon="16.974599641">
      <ele>197.271</ele>
    </trkpt>
    <trkpt lat="48.201294423" lon="16.974231005">
      <ele>197.395</ele>
    </trkpt>
    <trkpt lat="48.201208611" lon="16.974011064">
      <ele>196.761</ele>
    </trkpt>
    <trkpt lat="48.201204222" lon="16.973737059">
      <ele>194.749</ele>
    </trkpt>
    <trkpt lat="48.20062223" lon="16.973957419">
      <ele>197.612</ele>
    </trkpt>
    <trkpt lat="48.200249523" lon="16.974177193">
      <ele>195.214</ele>
    </trkpt>
    <trkpt lat="48.199650636" lon="16.974590421">
      <ele>191.566</ele>
    </trkpt>
    <trkpt lat="48.199003888" lon="16.974836681">
      <ele>187.956</ele>
    </trkpt>
    <trkpt lat="48.198701888" lon="16.975205736">
      <ele>190.819</ele>
    </trkpt>
    <trkpt lat="48.198399637" lon="16.975328447">
      <ele>188.427</ele>
    </trkpt>
    <trkpt lat="48.19827592" lon="16.975591807">
      <ele>192.777</ele>
    </trkpt>
    <trkpt lat="48.198022765" lon="16.975711584">
      <ele>191.932</ele>
    </trkpt>
    <trkpt lat="48.197690224" lon="16.975518465">
      <ele>186.393</ele>
    </trkpt>
    <trkpt lat="48.197389862" lon="16.975480914">
      <ele>180.891</ele>
    </trkpt>
    <trkpt lat="48.196907135" lon="16.97579205">
      <ele>175.065</ele>
    </trkpt>
    <trkpt lat="48.196746225" lon="16.975979805">
      <ele>176.033</ele>
    </trkpt>
    <trkpt lat="48.196607921" lon="16.975986846">
      <ele>173.047</ele>
    </trkpt>
    <trkpt lat="48.196431555" lon="16.976199746">
      <ele>173.566</ele>
    </trkpt>
    <trkpt lat="48.196274219" lon="16.97625339">
      <ele>170.47</ele>
    </trkpt>
    <trkpt lat="48.196167117" lon="16.976462519">
      <ele>172.002</ele>
    </trkpt>
    <trkpt lat="48.196045366" lon="16.976709366">
      <ele>173.792</ele>
    </trkpt>
    <trkpt lat="48.195862998" lon="16.976805925">
      <ele>169.969</ele>
    </trkpt>
    <trkpt lat="48.195544747" lon="16.977192163">
      <ele>168.554</ele>
    </trkpt>
    <trkpt lat="48.195587657" lon="16.978034377">
      <ele>190.546</ele>
    </trkpt>
    <trkpt lat="48.194982586" lon="16.978206374">
      <ele>190.372</ele>
    </trkpt>
    <trkpt lat="48.194580004" lon="16.978013422">
      <ele>186.454</ele>
    </trkpt>
    <trkpt lat="48.194252774" lon="16.978239482">
      <ele>187.888</ele>
    </trkpt>
    <trkpt lat="48.193329675" lon="16.979989121">
      <ele>191.856</ele>
    </trkpt>
    <trkpt lat="48.192883506" lon="16.98013111">
      <ele>195.422</ele>
    </trkpt>
    <trkpt lat="48.192670858" lon="16.979900105">
      <ele>193.742</ele>
    </trkpt>
    <trkpt lat="48.19244795" lon="16.980094314">
      <ele>201.215</ele>
    </trkpt>
    <trkpt lat="48.191940143" lon="16.98007822">
      <ele>204.288</ele>
    </trkpt>
    <trkpt lat="48.191433186" lon="16.98022767">
      <ele>209.695</ele>
    </trkpt>
    <trkpt lat="48.190781912" lon="16.980435625">
      <ele>207.127</ele>
    </trkpt>
    <trkpt lat="48.190273644" lon="16.981135011">
      <ele>231.933</ele>
    </trkpt>
    <trkpt lat="48.190077413" lon="16.981226038">
      <ele>235.128</ele>
    </trkpt>
    <trkpt lat="48.18971632" lon="16.981073236">
      <ele>233.606</ele>
    </trkpt>
    <trkpt lat="48.189584892" lon="16.980760926">
      <ele>224.779</ele>
    </trkpt>
    <trkpt lat="48.189321198" lon="16.980606951">
      <ele>222.572</ele>
    </trkpt>
    <trkpt lat="48.188432883" lon="16.981404824">
      <ele>244.158</ele>
    </trkpt>
    <trkpt lat="48.188207997" lon="16.981512029">
      <ele>249.595</ele>
    </trkpt>
    <trkpt lat="48.188020564" lon="16.981258392">
      <ele>244.05</ele>
    </trkpt>
    <trkpt lat="48.187707765" lon="16.980698481">
      <ele>234.365</ele>
    </trkpt>
    <trkpt lat="48.187190834" lon="16.980813146">
      <ele>239.733</ele>
    </trkpt>
    <trkpt lat="48.186583165" lon="16.981124366">
      <ele>242.8</ele>
    </trkpt>
    <trkpt lat="48.186293137" lon="16.981354952">
      <ele>246.153</ele>
    </trkpt>
    <trkpt lat="48.186014168" lon="16.981301308">
      <ele>242.061</ele>
    </trkpt>
    <trkpt lat="48.185858298" lon="16.981410524">
      <ele>242.744</ele>
    </trkpt>
    <trkpt lat="48.185445496" lon="16.981639266">
      <ele>244.012</ele>
    </trkpt>
    <trkpt lat="48.185220171" lon="16.981864572">
      <ele>248.839</ele>
    </trkpt>
    <trkpt lat="48.184773095" lon="16.981751919">
      <ele>243.957</ele>
    </trkpt>
    <trkpt lat="48.183696521" lon="16.982159615">
      <ele>239.251</ele>
    </trkpt>
    <trkpt lat="48.183603527" lon="16.982390285">
      <ele>240.071</ele>
    </trkpt>
    <trkpt lat="48.183553453" lon="16.98284626">
      <ele>244.377</ele>
    </trkpt>
    <trkpt lat="48.183353157" lon="16.983109117">
      <ele>243.45</ele>
    </trkpt>
    <trkpt lat="48.183199357" lon="16.983152032">
      <ele>238.264</ele>
    </trkpt>
    <trkpt lat="48.183067018" lon="16.983425617">
      <ele>236.838</ele>
    </trkpt>
    <trkpt lat="48.182881027" lon="16.983570457">
      <ele>230.247</ele>
    </trkpt>
    <trkpt lat="48.182820223" lon="16.983774304">
      <ele>231.014</ele>
    </trkpt>
    <trkpt lat="48.182870297" lon="16.984160542">
      <ele>242.509</ele>
    </trkpt>
    <trkpt lat="48.182788929" lon="16.984532531">
      <ele>248.716</ele>
    </trkpt>
    <trkpt lat="48.182361117" lon="16.984633114">
      <ele>239.934</ele>
    </trkpt>
    <trkpt lat="48.181850912" lon="16.984616518">
      <ele>234.104</ele>
    </trkpt>
    <trkpt lat="48.181298962" lon="16.984525574">
      <ele>224.468</ele>
    </trkpt>
    <trkpt lat="48.180899648" lon="16.98472322">
      <ele>221.694</ele>
    </trkpt>
    <trkpt lat="48.180681277" lon="16.98543191">
      <ele>224.488</ele>
    </trkpt>
    <trkpt lat="48.180409431" lon="16.985802054">
      <ele>216.04</ele>
    </trkpt>
    <trkpt lat="48.180269931" lon="16.986274123">
      <ele>213.004</ele>
    </trkpt>
    <trkpt lat="48.180287816" lon="16.986628175">
      <ele>216.219</ele>
    </trkpt>
    <trkpt lat="48.180118706" lon="16.986950459">
      <ele>220.378</ele>
    </trkpt>
    <trkpt lat="48.180027511" lon="16.986916093">
      <ele>218.777</ele>
    </trkpt>
    <trkpt lat="48.179701195" lon="16.986091733">
      <ele>204.246</ele>
    </trkpt>
    <trkpt lat="48.179447483" lon="16.98490276">
      <ele>191.56</ele>
    </trkpt>
    <trkpt lat="48.179436498" lon="16.984096169">
      <ele>182.592</ele>
    </trkpt>
    <trkpt lat="48.179676156" lon="16.982551217">
      <ele>165.719</ele>
    </trkpt>
    <trkpt lat="48.179894351" lon="16.981167197">
      <ele>151.404</ele>
    </trkpt>
    <trkpt lat="48.179586732" lon="16.980228424">
      <ele>147.223</ele>
    </trkpt>
    <trkpt lat="48.178352657" lon="16.98114574">
      <ele>145.388</ele>
    </trkpt>
    <trkpt lat="48.178188941" lon="16.980569484">
      <ele>141.58</ele>
    </trkpt>
    <trkpt lat="48.178048606" lon="16.980341077">
      <ele>139.475</ele>
    </trkpt>
    <trkpt lat="48.177877637" lon="16.9803451">
      <ele>139.97</ele>
    </trkpt>
    <trkpt lat="48.176188485" lon="16.979949474">
      <ele>140.721</ele>
    </trkpt>
    <trkpt lat="48.176195639" lon="16.979767084">
      <ele>140.696</ele>
    </trkpt>
    <trkpt lat="48.176209948" lon="16.979595423">
      <ele>140.938</ele>
    </trkpt>
    <trkpt lat="48.176238566" lon="16.979429126">
      <ele>141.078</ele>
    </trkpt>
    <trkpt lat="48.17624572" lon="16.979354024">
      <ele>141.021</ele>
    </trkpt>
    <trkpt lat="48.176496125" lon="16.979402304">
      <ele>140.479</ele>
    </trkpt>
  </trkseg>
</trk>
</gpx>
